{
	"name": "Default bindings for Vive Trackers",
	"controller_type": "vive_tracker_camera",
	"last_edited_by": "UnrealEngine",
	"bindings":
	{
		"/actions/main":
		{
			"sources": [
				{
					"mode": "button",
					"path": "/user/hand/right/input/grip",
					"inputs":
					{
						"click":
						{
							"output": "/actions/main/in/Handbrake"
						}
					}
				},
				{
					"mode": "button",
					"path": "/user/hand/left/input/application_menu",
					"inputs":
					{
						"click":
						{
							"output": "/actions/main/in/ResetVR"
						}
					}
				}
			],
			"poses": [
				{
					"output": "/actions/main/in/special1",
					"path": "/user/hand/left/pose/back",
					"requirement": "optional"
				},
				{
					"output": "/actions/main/in/special2",
					"path": "/user/hand/right/pose/back",
					"requirement": "optional"
				},
				{
					"output": "/actions/main/in/special3",
					"path": "/user/hand/left/pose/front",
					"requirement": "optional"
				},
				{
					"output": "/actions/main/in/special4",
					"path": "/user/hand/right/pose/front",
					"requirement": "optional"
				},
				{
					"output": "/actions/main/in/special5",
					"path": "/user/hand/left/pose/frontandrolled",
					"requirement": "optional"
				},
				{
					"output": "/actions/main/in/special6",
					"path": "/user/hand/right/pose/frontandrolled",
					"requirement": "optional"
				},
				{
					"output": "/actions/main/in/special7",
					"path": "/user/hand/left/pose/pistolgrip",
					"requirement": "optional"
				},
				{
					"output": "/actions/main/in/special8",
					"path": "/user/hand/right/pose/pistolgrip",
					"requirement": "optional"
				}
			]
		}
	},
	"description": "CapGameVR-11590370"
}